G04 Layer_Physical_Order=2*
G04 Layer_Color=11436288*
%FSLAX43Y43*%
%MOMM*%
G71*
G01*
G75*
%ADD18C,0.400*%
%ADD19C,0.254*%
%ADD21C,1.750*%
G04:AMPARAMS|DCode=22|XSize=1.75mm|YSize=1.75mm|CornerRadius=0.175mm|HoleSize=0mm|Usage=FLASHONLY|Rotation=180.000|XOffset=0mm|YOffset=0mm|HoleType=Round|Shape=RoundedRectangle|*
%AMROUNDEDRECTD22*
21,1,1.750,1.400,0,0,180.0*
21,1,1.400,1.750,0,0,180.0*
1,1,0.350,-0.700,0.700*
1,1,0.350,0.700,0.700*
1,1,0.350,0.700,-0.700*
1,1,0.350,-0.700,-0.700*
%
%ADD22ROUNDEDRECTD22*%
%ADD23C,2.000*%
G04:AMPARAMS|DCode=24|XSize=1.75mm|YSize=1.75mm|CornerRadius=0.175mm|HoleSize=0mm|Usage=FLASHONLY|Rotation=270.000|XOffset=0mm|YOffset=0mm|HoleType=Round|Shape=RoundedRectangle|*
%AMROUNDEDRECTD24*
21,1,1.750,1.400,0,0,270.0*
21,1,1.400,1.750,0,0,270.0*
1,1,0.350,-0.700,-0.700*
1,1,0.350,-0.700,0.700*
1,1,0.350,0.700,0.700*
1,1,0.350,0.700,-0.700*
%
%ADD24ROUNDEDRECTD24*%
%ADD25C,1.778*%
%ADD26C,1.270*%
%ADD27R,1.270X1.270*%
%ADD28C,1.422*%
%ADD29R,1.422X1.422*%
%ADD30C,7.000*%
D18*
X51600Y50250D02*
X51600Y71350D01*
D19*
X54455Y45650D02*
X54455Y63510D01*
X53135Y64830D02*
X54455Y63510D01*
D21*
X66785Y40650D02*
D03*
X69325Y40650D02*
D03*
X68900Y58334D02*
D03*
X66360Y58334D02*
D03*
X38530Y36724D02*
D03*
X38530Y34184D02*
D03*
D22*
X71865Y40650D02*
D03*
X71440Y58334D02*
D03*
D23*
X31405Y67142D02*
D03*
X31405Y69682D02*
D03*
X26155Y67142D02*
D03*
X26155Y69682D02*
D03*
D03*
D24*
X38530Y39264D02*
D03*
D25*
X23830Y57424D02*
D03*
X23830Y62424D02*
D03*
X28830Y59924D02*
D03*
X39330Y45324D02*
D03*
X34330Y45324D02*
D03*
X36830Y50324D02*
D03*
D26*
X60940Y56750D02*
D03*
X60940Y54210D02*
D03*
X60940Y51670D02*
D03*
X60940Y49130D02*
D03*
X60940Y46590D02*
D03*
X60940Y44050D02*
D03*
X45700Y56750D02*
D03*
X45700Y54210D02*
D03*
X45700Y51670D02*
D03*
X45700Y49130D02*
D03*
X45700Y46590D02*
D03*
X54455Y45650D02*
D03*
X53135Y64830D02*
D03*
X51600Y71350D02*
D03*
X51700Y50000D02*
D03*
D27*
X45700Y44050D02*
D03*
D28*
X49512Y39430D02*
D03*
X49512Y41970D02*
D03*
X49512Y44510D02*
D03*
X49512Y47050D02*
D03*
X49512Y49590D02*
D03*
X49512Y52130D02*
D03*
X49512Y54670D02*
D03*
X49512Y57210D02*
D03*
X57132Y59750D02*
D03*
X49512Y59750D02*
D03*
X49512Y62290D02*
D03*
X49512Y64830D02*
D03*
X49512Y67370D02*
D03*
X57132Y67370D02*
D03*
X57132Y64830D02*
D03*
X57132Y62290D02*
D03*
X57132Y57210D02*
D03*
X57132Y54670D02*
D03*
X57132Y52130D02*
D03*
X57132Y49590D02*
D03*
X57132Y47050D02*
D03*
X57132Y44510D02*
D03*
X57132Y41970D02*
D03*
D29*
X57132Y39430D02*
D03*
D30*
X33789Y29972D02*
D03*
X33789Y55372D02*
D03*
M02*
